<svg width="138" height="31" viewBox="0 0 138 31" fill="none" xmlns="http://www.w3.org/2000/svg">
<path d="M6.70298 9.16016H5.8417L5.61702 6.24867C5.5234 5.10654 5.47035 4.22966 5.45787 3.61803L4.06298 8.42994H3.22979L1.76 3.60867C1.76 4.38881 1.71943 5.29065 1.6383 6.3142L1.42298 9.16016H0.580426L1.11404 2.70994H2.31234L3.66979 7.40016L4.9617 2.70994H6.16936L6.70298 9.16016ZM11.6583 9.16016L11.1715 7.54058H8.7281L8.2413 9.16016H7.34257L9.41151 2.70994H10.5349L12.5945 9.16016H11.6583ZM8.94342 6.81973H10.9562L9.95449 3.44952L8.94342 6.81973ZM14.9372 2.70994C15.9108 2.70994 16.6909 2.93774 17.2776 3.39335C17.8705 3.84271 18.167 4.67902 18.167 5.90228C18.167 7.09434 17.8705 7.93689 17.2776 8.42994C16.6909 8.91675 15.9763 9.16016 15.1338 9.16016H13.5891V2.70994H14.9372ZM14.4785 3.42143V8.45803H15.1993C15.7985 8.45803 16.2853 8.27392 16.6597 7.90569C17.0342 7.53746 17.2214 6.86966 17.2214 5.90228C17.2214 5.222 17.1247 4.70087 16.9312 4.33888C16.7377 3.97065 16.4912 3.72725 16.1916 3.60867C15.8921 3.48384 15.5395 3.42143 15.1338 3.42143H14.4785ZM23.1058 2.70994L23.0028 3.42143H20.5032V5.52782H22.6751V6.23931H20.5032V8.44867H23.1807V9.16016H19.6139V2.70994H23.1058ZM29.9474 5.7525C30.3905 5.82739 30.7493 5.98342 31.0239 6.22058C31.2986 6.45774 31.4359 6.82597 31.4359 7.32526C31.4359 8.54853 30.5839 9.16016 28.8801 9.16016H27.1014V2.70994H28.6274C29.4449 2.70994 30.0691 2.84413 30.4997 3.1125C30.9366 3.38087 31.155 3.78966 31.155 4.33888C31.155 4.71335 31.0364 5.0254 30.7993 5.27505C30.5683 5.5247 30.2844 5.68384 29.9474 5.7525ZM27.9908 3.41207V5.44356H28.9644C29.3388 5.44356 29.6447 5.35306 29.8818 5.17207C30.1252 4.99108 30.2469 4.73519 30.2469 4.40441C30.2469 4.02994 30.119 3.77094 29.8631 3.62739C29.6135 3.48384 29.2327 3.41207 28.721 3.41207H27.9908ZM28.8801 8.44867C29.4044 8.44867 29.8038 8.37065 30.0784 8.21462C30.3593 8.0586 30.4997 7.76214 30.4997 7.32526C30.4997 6.90087 30.3655 6.59505 30.0971 6.40782C29.8288 6.22058 29.4793 6.12696 29.0486 6.12696H27.9908V8.44867H28.8801ZM36.7344 2.70994L34.6561 6.67931V9.16016H33.7574V6.68867L31.6791 2.70994H32.6621L34.2349 5.90228L35.8076 2.70994H36.7344Z" fill="white"/>
<g clip-path="url(#clip0_3929_7508)">
<path d="M5.83554 29.6451C5.99602 29.6537 6.15941 29.658 6.32572 29.658C7.59787 29.658 8.70079 29.4063 9.63448 28.9028C10.5798 28.3879 11.3034 27.6556 11.8053 26.7059C12.3072 25.7562 12.5581 24.6464 12.5581 23.3763C12.5581 22.1062 12.3072 21.0021 11.8053 20.0638C11.3034 19.1255 10.5798 18.4047 9.63448 17.9012C8.70079 17.3864 7.59787 17.1289 6.32572 17.1289C5.05358 17.1289 3.94482 17.3864 2.99946 17.9012C2.06578 18.4047 1.34217 19.1255 0.828641 20.0638C0.315114 21.0021 0.0583496 22.1062 0.0583496 23.3763C0.0583496 23.5619 0.0638204 23.7439 0.0743974 23.9226H3.36747C3.35543 23.7474 3.3496 23.5651 3.3496 23.3763C3.3496 22.1291 3.6122 21.1851 4.13739 20.5444C4.66259 19.9036 5.39204 19.5832 6.32572 19.5832C7.25941 19.5832 7.98885 19.9093 8.51405 20.5615C9.05092 21.2023 9.31936 22.1405 9.31936 23.3763C9.31936 24.6235 9.05092 25.5732 8.51405 26.2254C7.98885 26.8776 7.25941 27.2037 6.32572 27.2037C6.16177 27.2041 5.99797 27.1933 5.83554 27.1715V29.6451ZM26.3595 29.5035V17.2834H23.2608V24.1829L17.6062 17.2834H15.2078V29.5035H18.2714V22.5696L23.9261 29.5035H26.3595ZM38.2341 17.2834H29.3407V29.5035H38.2341V27.032H32.5445V24.5262H37.8665V22.0547H32.5445V19.7549H38.2341V17.2834ZM58.5451 17.2834H56.7769L53.3806 27.0492L49.9843 17.3005L48.6538 17.2834L45.205 26.9977L41.8613 17.2834H40.0231L44.3997 29.5035H45.9053L49.2841 20.0638L52.6453 29.5035H54.1509L58.5451 17.2834Z" fill="white"/>
<path fill-rule="evenodd" clip-rule="evenodd" d="M67.557 26.4846L68.8875 29.5053H70.7257L65.1586 17.2852H63.6355L58.0859 29.5053H59.9241L61.2546 26.4846H67.557ZM66.9443 25.0772H61.8674L64.4058 19.2589L66.9443 25.0772Z" fill="white"/>
<path d="M75.7868 24.5966L80.7587 17.2852H78.6929L74.894 23.052L71.0775 17.2852H69.0117L73.9661 24.5623V29.5053H75.7868V24.5966Z" fill="white"/>
<path fill-rule="evenodd" clip-rule="evenodd" d="M90.9449 24.2877C90.5481 23.7728 89.9937 23.4238 89.2818 23.2408C89.912 23.0119 90.3964 22.6629 90.7348 22.1938C91.085 21.7247 91.26 21.1583 91.26 20.4947C91.26 19.4534 90.9157 18.6582 90.2271 18.109C89.5502 17.5598 88.5815 17.2852 87.321 17.2852H82.7168V29.5053H87.5136C88.8091 29.5053 89.8011 29.225 90.4897 28.6643C91.19 28.1036 91.5401 27.2798 91.5401 26.1928C91.5401 25.4262 91.3417 24.7912 90.9449 24.2877ZM87.2335 22.949H83.4521V17.9545H87.2335C89.3927 17.9545 90.4722 18.7669 90.4722 20.3917C90.4722 21.227 90.198 21.862 89.6494 22.2968C89.1009 22.7316 88.2956 22.949 87.2335 22.949ZM89.947 28.2181C89.4218 28.63 88.6049 28.8359 87.4961 28.8359H83.4521V23.6527H87.4961C89.6669 23.6527 90.7523 24.528 90.7523 26.2786C90.7523 27.1482 90.4839 27.7947 89.947 28.2181Z" fill="white"/>
<path d="M95.209 17.2852V29.5053H101.832V28.8531H95.9268V17.2852H95.209Z" fill="white"/>
<path fill-rule="evenodd" clip-rule="evenodd" d="M105.212 28.8841C106.041 29.3876 107.01 29.6393 108.118 29.6393C109.239 29.6393 110.208 29.3876 111.024 28.8841C111.853 28.3807 112.483 27.6598 112.915 26.7216C113.359 25.7719 113.58 24.6563 113.58 23.3747C113.58 22.0932 113.359 20.9891 112.915 20.0623C112.483 19.124 111.853 18.4032 111.024 17.8997C110.208 17.3963 109.239 17.1445 108.118 17.1445C106.998 17.1445 106.029 17.3963 105.212 17.8997C104.395 18.4032 103.765 19.124 103.322 20.0623C102.89 21.0005 102.674 22.1104 102.674 23.3919C102.674 24.6734 102.89 25.7833 103.322 26.7216C103.765 27.6598 104.395 28.3807 105.212 28.8841ZM111.55 27.4767C110.733 28.4493 109.589 28.9356 108.118 28.9356C106.648 28.9356 105.504 28.4493 104.687 27.4767C103.87 26.4927 103.462 25.1254 103.462 23.3747C103.462 21.6241 103.864 20.2682 104.67 19.3071C105.487 18.3345 106.636 17.8482 108.118 17.8482C109.601 17.8482 110.744 18.3288 111.55 19.2899C112.367 20.2511 112.775 21.6127 112.775 23.3747C112.775 25.1368 112.367 26.5042 111.55 27.4767Z" fill="white"/>
<path d="M118.55 28.9013C119.379 29.3933 120.365 29.6393 121.509 29.6393C123.259 29.6393 124.671 29.0901 125.745 27.9916L125.378 27.3909C124.759 27.9401 124.146 28.3349 123.539 28.5752C122.944 28.8155 122.261 28.9356 121.491 28.9356C119.974 28.9356 118.801 28.4493 117.972 27.4767C117.144 26.5042 116.729 25.1368 116.729 23.3747C116.729 21.6241 117.144 20.2682 117.972 19.3071C118.813 18.3345 119.986 17.8482 121.491 17.8482C122.261 17.8482 122.944 17.9684 123.539 18.2086C124.146 18.4489 124.759 18.8437 125.378 19.3929L125.745 18.7922C124.671 17.6938 123.259 17.1445 121.509 17.1445C120.365 17.1445 119.379 17.3963 118.55 17.8997C117.721 18.3917 117.079 19.1068 116.624 20.0451C116.181 20.9719 115.959 22.0818 115.959 23.3747C115.959 24.6677 116.181 25.789 116.624 26.7387C117.079 27.677 117.721 28.3978 118.55 28.9013ZM136.137 29.502H137.222L129.904 23.2889L136.82 17.2818H135.769L129.152 22.9972V17.2818H128.434V29.502H129.152V23.5979L136.137 29.502Z" fill="white"/>
<path d="M0 26.0703H3.64721V29.646H0V26.0703Z" fill="#2670FF"/>
</g>
<defs>
<clipPath id="clip0_3929_7508">
<rect width="137.5" height="12.8723" fill="white" transform="translate(0 17.1289)"/>
</clipPath>
</defs>
</svg>
